/* XPM */
static char *grid[] = {
/* columns rows colors chars-per-pixel */
"22 16 31 1 ",
"  c #1B1B2D",
". c #1C1C2E",
"X c #1F1F31",
"o c #202032",
"O c #212132",
"+ c #222234",
"@ c #232335",
"# c #4C4C5F",
"$ c #4E4E62",
"% c #4F4F63",
"& c #5E5E72",
"* c #5F5F74",
"= c #606074",
"- c #616175",
"; c #616176",
": c #808095",
"> c #8B8BA1",
", c #A3A3B9",
"< c #A4A4BA",
"1 c #B3B3CA",
"2 c #B9B9D0",
"3 c #D2D2EA",
"4 c #D2D2EB",
"5 c #D3D3EB",
"6 c #D9D9F1",
"7 c #DFDFF8",
"8 c #E2E2FB",
"9 c #E3E3FC",
"0 c #E4E4FD",
"q c #E5E5FE",
"w c #E6E6FF",
/* pixels */
"+ww8w99w998w9899w999ww",
"+9>&======:6:=======>9",
"+8& XXXXo $3$ ooXXX &8",
"+8=X+++++o$3$o+++++X=8",
"+8=X+++++X$3$Xo++++X=8",
"+8=X+++++o$3$X+++++X=8",
"+8=o+@@@+o$3%o@@@@+X=9",
"+w2,<<<<<<181,<<<<<,2w",
"+w2,<<<<<<181,<<<<<,2w",
"+9=o@@@+@o%3$o@+@+@o=8",
"+8=X+++++X$3$o+++++X=9",
"+8=o+++++o$3$o+++++X=9",
"+8=X+++++X$3$Xo++++X=8",
"+8& ooXXX #3$ XXooo &8",
"+9>&======:6:======&>9",
"+ww999w999ww999w9998ww"
};
